C:\Users\rle0584\Desktop\currentStream\MavenInfocast\src\test\java\dataProvider\ConfigFileReader.java
C:\Users\rle0584\Desktop\currentStream\MavenInfocast\src\test\java\PageObjectModel\LoginPF.java
C:\Users\rle0584\Desktop\currentStream\MavenInfocast\src\test\java\stepDefinitions\InfocastIweb.java
C:\Users\rle0584\Desktop\currentStream\MavenInfocast\src\test\java\stepDefinitions\WatchListSD.java
C:\Users\rle0584\Desktop\currentStream\MavenInfocast\src\test\java\PageObjectModel\WatchList.java
C:\Users\rle0584\Desktop\currentStream\MavenInfocast\src\test\java\stepDefinitions\Hooks.java
C:\Users\rle0584\Desktop\currentStream\MavenInfocast\src\test\java\utility\ConfigFileReader.java
C:\Users\rle0584\Desktop\currentStream\MavenInfocast\src\test\java\PageObjectModel\BusinessFunctions.java
C:\Users\rle0584\Desktop\currentStream\MavenInfocast\src\test\java\PageObjectModel\HomePage.java
C:\Users\rle0584\Desktop\currentStream\MavenInfocast\src\test\java\stepDefinitions\Login.java
C:\Users\rle0584\Desktop\currentStream\MavenInfocast\src\test\java\stepDefinitions\OrderInputSD.java
C:\Users\rle0584\Desktop\currentStream\MavenInfocast\src\test\java\utility\TestlinkIntegration.java
C:\Users\rle0584\Desktop\currentStream\MavenInfocast\src\test\java\Runner\TestRunner.java
C:\Users\rle0584\Desktop\currentStream\MavenInfocast\target\generated-test-sources\cucumber\Parallel02IT.java
C:\Users\rle0584\Desktop\currentStream\MavenInfocast\target\generated-test-sources\cucumber\Parallel03IT.java
C:\Users\rle0584\Desktop\currentStream\MavenInfocast\target\generated-test-sources\cucumber\Parallel04IT.java
C:\Users\rle0584\Desktop\currentStream\MavenInfocast\target\generated-test-sources\cucumber\Parallel01IT.java
C:\Users\rle0584\Desktop\currentStream\MavenInfocast\src\test\java\stepDefinitions\ChangePassword.java
C:\Users\rle0584\Desktop\currentStream\MavenInfocast\src\test\java\PageObjectModel\ChangePassPage.java
